%YAML 1.1
%TAG !u! tag:unity3d.com,2011:
--- !u!114 &11400000
MonoBehaviour:
  m_ObjectHideFlags: 0
  m_CorrespondingSourceObject: {fileID: 0}
  m_PrefabInstance: {fileID: 0}
  m_PrefabAsset: {fileID: 0}
  m_GameObject: {fileID: 0}
  m_Enabled: 1
  m_EditorHideFlags: 0
  m_Script: {fileID: 11500000, guid: a46f189807ba4d378964f6a998c91a92, type: 3}
  m_Name: MapViewSettings
  m_EditorClassIdentifier: 
  SimulatePathProgress: 1
  SimulationInterval: 0.1
  TileSize: 0.5
  TileViewSettings: {fileID: 11400000, guid: dc35aba2cb6dcc349bfe2f0a5d71184e, type: 2}
